-------------------------------------------------------------------------------
Test set: com.backend.retobackend.RetobackendApplicationTests
-------------------------------------------------------------------------------
Tests run: 1, Failures: 0, Errors: 0, Skipped: 0, Time elapsed: 3.249 s - in com.backend.retobackend.RetobackendApplicationTests
